<?xml version="1.0" encoding="UTF-8" standalone="no"?>
<!-- Created with Inkscape (http://www.inkscape.org/) -->

<svg
   xmlns:dc="http://purl.org/dc/elements/1.1/"
   xmlns:cc="http://creativecommons.org/ns#"
   xmlns:rdf="http://www.w3.org/1999/02/22-rdf-syntax-ns#"
   xmlns:svg="http://www.w3.org/2000/svg"
   xmlns="http://www.w3.org/2000/svg"
   xmlns:sodipodi="http://sodipodi.sourceforge.net/DTD/sodipodi-0.dtd"
   xmlns:inkscape="http://www.inkscape.org/namespaces/inkscape"
   width="52mm"
   height="74mm"
   viewBox="0 0 52 74"
   version="1.1"
   id="SVGRoot"
   inkscape:version="0.92.3 (2405546, 2018-03-11)"
   sodipodi:docname="carte.svg">
  <sodipodi:namedview
     id="base"
     pagecolor="#ffffff"
     bordercolor="#666666"
     borderopacity="1.0"
     inkscape:pageopacity="0.0"
     inkscape:pageshadow="2"
     inkscape:zoom="2"
     inkscape:cx="51.818584"
     inkscape:cy="155.25639"
     inkscape:document-units="mm"
     inkscape:current-layer="layer1"
     showgrid="true"
     inkscape:window-width="1600"
     inkscape:window-height="845"
     inkscape:window-x="0"
     inkscape:window-y="27"
     inkscape:window-maximized="1"
     inkscape:showpageshadow="false"
     inkscape:snap-bbox="true"
     inkscape:bbox-nodes="true">
    <inkscape:grid
       type="xygrid"
       id="grid1518"
       units="mm"
       spacingx="1"
       spacingy="1"
       empcolor="#ff9b3f"
       empopacity="0.25098039" />
  </sodipodi:namedview>
  <defs
     id="defs959" />
  <metadata
     id="metadata962">
    <rdf:RDF>
      <cc:Work
         rdf:about="">
        <dc:format>image/svg+xml</dc:format>
        <dc:type
           rdf:resource="http://purl.org/dc/dcmitype/StillImage" />
        <dc:title></dc:title>
      </cc:Work>
    </rdf:RDF>
  </metadata>
  <g
     id="layer1"
     inkscape:groupmode="layer"
     inkscape:label="Calque 1"
     transform="translate(0,22)">
    <rect
       style="opacity:1;fill:#777777;fill-opacity:1;stroke:none;stroke-width:0.06663332;stroke-miterlimit:2.66666675;stroke-dasharray:none;stroke-dashoffset:0;stroke-opacity:1"
       id="rect1520"
       width="52"
       height="74"
       x="0"
       y="-22.000004"
       ry="6.000001"
       rx="6.000001" />
    <rect
       ry="6.000001"
       y="-21.000004"
       x="1.000001"
       height="72"
       width="50"
       id="rect1522"
       style="opacity:1;fill:#fcfcfc;fill-opacity:1;stroke:none;stroke-width:0.06445034;stroke-miterlimit:2.66666675;stroke-dasharray:none;stroke-dashoffset:0;stroke-opacity:1"
       rx="6.000001" />
    <rect
       style="opacity:1;fill:#777777;fill-opacity:1;stroke:none;stroke-width:0.05237229;stroke-miterlimit:2.66666675;stroke-dasharray:none;stroke-dashoffset:0;stroke-opacity:1"
       id="rect1543"
       width="32"
       height="1"
       x="14"
       y="-11" />
    <text
       xml:space="preserve"
       style="font-style:normal;font-weight:normal;font-size:5.14842367px;line-height:1.25;font-family:sans-serif;letter-spacing:0px;word-spacing:0px;fill:#000000;fill-opacity:1;stroke:none;stroke-width:0.12871058"
       x="5.494709"
       y="-14.080653"
       id="text1547"><tspan
         sodipodi:role="line"
         id="tspan1545"
         x="5.494709"
         y="-14.080653"
         style="stroke-width:0.12871058">Nom tech</tspan></text>
    <circle
       style="opacity:1;fill:none;fill-opacity:1;stroke:#777777;stroke-width:1.09090912;stroke-miterlimit:2.66666675;stroke-dasharray:none;stroke-dashoffset:0;stroke-opacity:1"
       id="path1549"
       cx="46"
       cy="-16"
       r="5.4545455" />
  </g>
</svg>
